%YAML 1.1
%TAG !u! tag:unity3d.com,2011:
--- !u!1001 &1118698251669699852
PrefabInstance:
  m_ObjectHideFlags: 0
  serializedVersion: 2
  m_Modification:
    serializedVersion: 3
    m_TransformParent: {fileID: 0}
    m_Modifications:
    - target: {fileID: -8679921383154817045, guid: ff158ec4e0d63744f8e2a37637a60e60,
        type: 3}
      propertyPath: m_LocalPosition.x
      value: -3.42
      objectReference: {fileID: 0}
    - target: {fileID: -8679921383154817045, guid: ff158ec4e0d63744f8e2a37637a60e60,
        type: 3}
      propertyPath: m_LocalPosition.y
      value: 0.3337957
      objectReference: {fileID: 0}
    - target: {fileID: -8679921383154817045, guid: ff158ec4e0d63744f8e2a37637a60e60,
        type: 3}
      propertyPath: m_LocalPosition.z
      value: 0.025458813
      objectReference: {fileID: 0}
    - target: {fileID: -8679921383154817045, guid: ff158ec4e0d63744f8e2a37637a60e60,
        type: 3}
      propertyPath: m_LocalRotation.w
      value: 1
      objectReference: {fileID: 0}
    - target: {fileID: -8679921383154817045, guid: ff158ec4e0d63744f8e2a37637a60e60,
        type: 3}
      propertyPath: m_LocalRotation.x
      value: -0
      objectReference: {fileID: 0}
    - target: {fileID: -8679921383154817045, guid: ff158ec4e0d63744f8e2a37637a60e60,
        type: 3}
      propertyPath: m_LocalRotation.y
      value: -0
      objectReference: {fileID: 0}
    - target: {fileID: -8679921383154817045, guid: ff158ec4e0d63744f8e2a37637a60e60,
        type: 3}
      propertyPath: m_LocalRotation.z
      value: -0
      objectReference: {fileID: 0}
    - target: {fileID: -8679921383154817045, guid: ff158ec4e0d63744f8e2a37637a60e60,
        type: 3}
      propertyPath: m_LocalEulerAnglesHint.x
      value: 0
      objectReference: {fileID: 0}
    - target: {fileID: -8679921383154817045, guid: ff158ec4e0d63744f8e2a37637a60e60,
        type: 3}
      propertyPath: m_LocalEulerAnglesHint.y
      value: 0
      objectReference: {fileID: 0}
    - target: {fileID: -8679921383154817045, guid: ff158ec4e0d63744f8e2a37637a60e60,
        type: 3}
      propertyPath: m_LocalEulerAnglesHint.z
      value: 0
      objectReference: {fileID: 0}
    - target: {fileID: -7511558181221131132, guid: ff158ec4e0d63744f8e2a37637a60e60,
        type: 3}
      propertyPath: m_Materials.Array.data[0]
      value: 
      objectReference: {fileID: 2100000, guid: 5759a3c1ed346074da80b6273d90305d, type: 2}
    - target: {fileID: 919132149155446097, guid: ff158ec4e0d63744f8e2a37637a60e60,
        type: 3}
      propertyPath: m_Name
      value: Pink UFO
      objectReference: {fileID: 0}
    - target: {fileID: 919132149155446097, guid: ff158ec4e0d63744f8e2a37637a60e60,
        type: 3}
      propertyPath: m_TagString
      value: Target
      objectReference: {fileID: 0}
    - target: {fileID: 8151023354082563727, guid: ff158ec4e0d63744f8e2a37637a60e60,
        type: 3}
      propertyPath: m_Materials.Array.data[0]
      value: 
      objectReference: {fileID: 2100000, guid: 0471450d758ef8944853dbc2a2fc7481, type: 2}
    m_RemovedComponents: []
    m_RemovedGameObjects: []
    m_AddedGameObjects: []
    m_AddedComponents:
    - targetCorrespondingSourceObject: {fileID: 919132149155446097, guid: ff158ec4e0d63744f8e2a37637a60e60,
        type: 3}
      insertIndex: -1
      addedObject: {fileID: 964114973152698263}
    - targetCorrespondingSourceObject: {fileID: 919132149155446097, guid: ff158ec4e0d63744f8e2a37637a60e60,
        type: 3}
      insertIndex: -1
      addedObject: {fileID: 7024813386911500167}
  m_SourcePrefab: {fileID: 100100000, guid: ff158ec4e0d63744f8e2a37637a60e60, type: 3}
--- !u!1 &236161835216289885 stripped
GameObject:
  m_CorrespondingSourceObject: {fileID: 919132149155446097, guid: ff158ec4e0d63744f8e2a37637a60e60,
    type: 3}
  m_PrefabInstance: {fileID: 1118698251669699852}
  m_PrefabAsset: {fileID: 0}
--- !u!65 &964114973152698263
BoxCollider:
  m_ObjectHideFlags: 0
  m_CorrespondingSourceObject: {fileID: 0}
  m_PrefabInstance: {fileID: 0}
  m_PrefabAsset: {fileID: 0}
  m_GameObject: {fileID: 236161835216289885}
  m_Material: {fileID: 0}
  m_IncludeLayers:
    serializedVersion: 2
    m_Bits: 0
  m_ExcludeLayers:
    serializedVersion: 2
    m_Bits: 0
  m_LayerOverridePriority: 0
  m_IsTrigger: 1
  m_ProvidesContacts: 0
  m_Enabled: 1
  serializedVersion: 3
  m_Size: {x: 1.1017303, y: 1.7240921, z: 2.0408542}
  m_Center: {x: -0.01099205, y: 0.21493703, z: 0}
--- !u!114 &7024813386911500167
MonoBehaviour:
  m_ObjectHideFlags: 0
  m_CorrespondingSourceObject: {fileID: 0}
  m_PrefabInstance: {fileID: 0}
  m_PrefabAsset: {fileID: 0}
  m_GameObject: {fileID: 236161835216289885}
  m_Enabled: 1
  m_EditorHideFlags: 0
  m_Script: {fileID: 11500000, guid: 5c5b60c51e6e2f4438fb43266242ff8b, type: 3}
  m_Name: 
  m_EditorClassIdentifier: 
  targetNumber: 4
  playerOnTarget: 0
